# Blender MTL File: 'Meja_Tengah.blend'
# Material Count: 1

newmtl Color
Ns 323.999994
Ka 1.000000 1.000000 1.000000
Kd 0.800000 0.800000 0.800000
Ks 0.500000 0.500000 0.500000
Ke 0.0 0.0 0.0
Ni 1.450000
d 1.000000
illum 2
map_Kd D:\\FP memotong waktu tidurmu\\New Jarkom\\Blender\\Meja_Tengah_Texture.jpg
