# Blender MTL File: 'Bahan_ui.blend'
# Material Count: 11

newmtl Color.003
Ns 225.000000
Ka 1.000000 1.000000 1.000000
Kd 0.128341 0.732537 0.800000
Ks 0.500000 0.500000 0.500000
Ke 0.0 0.0 0.0
Ni 1.450000
d 1.000000
illum 2

newmtl Color.004
Ns 225.000000
Ka 1.000000 1.000000 1.000000
Kd 0.800000 0.000000 0.006002
Ks 0.500000 0.500000 0.500000
Ke 0.0 0.0 0.0
Ni 1.450000
d 1.000000
illum 2

newmtl Color.005
Ns 225.000000
Ka 1.000000 1.000000 1.000000
Kd 0.800000 0.712778 0.131329
Ks 0.500000 0.500000 0.500000
Ke 0.0 0.0 0.0
Ni 1.450000
d 1.000000
illum 2

newmtl Color.006
Ns 225.000000
Ka 1.000000 1.000000 1.000000
Kd 0.434163 0.171450 0.800000
Ks 0.500000 0.500000 0.500000
Ke 0.0 0.0 0.0
Ni 1.450000
d 1.000000
illum 2

newmtl Color.007
Ns 225.000000
Ka 1.000000 1.000000 1.000000
Kd 0.147500 0.800000 0.347024
Ks 0.500000 0.500000 0.500000
Ke 0.0 0.0 0.0
Ni 1.450000
d 1.000000
illum 2

newmtl Material
Ns 323.999994
Ka 1.000000 1.000000 1.000000
Kd 0.000000 0.000000 0.000000
Ks 0.500000 0.500000 0.500000
Ke 0.0 0.0 0.0
Ni 1.450000
d 1.000000
illum 2

newmtl Material.002
Ns 323.999994
Ka 1.000000 1.000000 1.000000
Kd 0.000000 0.000000 0.000000
Ks 0.500000 0.500000 0.500000
Ke 0.0 0.0 0.0
Ni 1.450000
d 1.000000
illum 2

newmtl Material.003
Ns 323.999994
Ka 1.000000 1.000000 1.000000
Kd 0.822139 1.000000 0.839734
Ks 0.500000 0.500000 0.500000
Ke 0.0 0.0 0.0
Ni 1.450000
d 1.000000
illum 2

newmtl Material.004
Ns 323.999994
Ka 1.000000 1.000000 1.000000
Kd 0.000000 0.000000 0.000000
Ks 0.500000 0.500000 0.500000
Ke 0.0 0.0 0.0
Ni 1.450000
d 1.000000
illum 2

newmtl Material.005
Ns 323.999994
Ka 1.000000 1.000000 1.000000
Kd 0.821473 1.000000 0.839431
Ks 0.500000 0.500000 0.500000
Ke 0.0 0.0 0.0
Ni 1.450000
d 1.000000
illum 2

newmtl Material.007
Ns 323.999994
Ka 1.000000 1.000000 1.000000
Kd 0.821473 1.000000 0.839431
Ks 0.500000 0.500000 0.500000
Ke 0.0 0.0 0.0
Ni 1.450000
d 1.000000
illum 2
