# Blender MTL File: 'Bahan_ui_2.blend'
# Material Count: 8

newmtl Material
Ns 323.999994
Ka 1.000000 1.000000 1.000000
Kd 1.000000 1.000000 1.000000
Ks 0.500000 0.500000 0.500000
Ke 0.0 0.0 0.0
Ni 1.450000
d 1.000000
illum 2

newmtl Material.001
Ns 225.000000
Ka 1.000000 1.000000 1.000000
Kd 0.291592 0.800000 0.162762
Ks 0.500000 0.500000 0.500000
Ke 0.0 0.0 0.0
Ni 1.450000
d 1.000000
illum 2

newmtl Material.002
Ns 323.999994
Ka 1.000000 1.000000 1.000000
Kd 0.000000 0.000000 0.000000
Ks 0.500000 0.500000 0.500000
Ke 0.0 0.0 0.0
Ni 1.450000
d 1.000000
illum 2

newmtl Material.003
Ns 225.000000
Ka 1.000000 1.000000 1.000000
Kd 0.800000 0.784666 0.306912
Ks 0.500000 0.500000 0.500000
Ke 0.0 0.0 0.0
Ni 1.450000
d 1.000000
illum 2

newmtl Material.004
Ns 323.999994
Ka 1.000000 1.000000 1.000000
Kd 1.000000 1.000000 1.000000
Ks 0.500000 0.500000 0.500000
Ke 0.0 0.0 0.0
Ni 1.450000
d 1.000000
illum 2

newmtl Material.005
Ns 323.999994
Ka 1.000000 1.000000 1.000000
Kd 0.000000 0.000000 0.000000
Ks 0.500000 0.500000 0.500000
Ke 0.0 0.0 0.0
Ni 1.450000
d 1.000000
illum 2

newmtl Material.006
Ns 225.000000
Ka 1.000000 1.000000 1.000000
Kd 0.800000 0.453764 0.764956
Ks 0.500000 0.500000 0.500000
Ke 0.0 0.0 0.0
Ni 1.450000
d 1.000000
illum 2

newmtl Material.007
Ns 225.000000
Ka 1.000000 1.000000 1.000000
Kd 0.404251 0.800000 0.777136
Ks 0.500000 0.500000 0.500000
Ke 0.0 0.0 0.0
Ni 1.450000
d 1.000000
illum 2
